{
	"info": {
		"_postman_id": "60159403-6ec1-4565-a5da-68e63983edd1",
		"name": "Trello Api Delete All Boards",
		"schema": "https://schema.getpostman.com/json/collection/v2.1.0/collection.json",
		"_exporter_id": "20210874"
	},
	"item": [
		{
			"name": "Create Board",
			"event": [
				{
					"listen": "test",
					"script": {
						"exec": [
							"const response = pm.response.json();\r",
							"pm.collectionVariables.set('idBoard', response.id);\r",
							"\r",
							"pm.test(\"Status code is 200\", function () {\r",
							"    pm.response.to.have.status(200);\r",
							"});\r",
							"var jsonData = pm.response.json();\r",
							"\r",
							"pm.test(\"Board should be created with correct values\", function () {\r",
							"    pm.expect(jsonData.name).to.eql(pm.collectionVariables.get(\"boardName\"));\r",
							"    pm.expect(jsonData.closed).to.eql(false);\r",
							"});\r",
							"\r",
							"pm.test(\"Board Should be private\", function () {\r",
							"    pm.expect(jsonData.prefs.permissionLevel).to.eql(\"private\");\r",
							"});"
						],
						"type": "text/javascript"
					}
				},
				{
					"listen": "prerequest",
					"script": {
						"exec": [
							"function makeName(length) {\r",
							"    var result = '';\r",
							"    var characters = 'ABCDEFGHIJKLMNOPQRSTUVWXYZabcdefghijklmnopqrstuvwxyz0123456789';\r",
							"    var charactersLength = characters.length;\r",
							"    for ( var i = 0; i < length; i++ ) {\r",
							"      result += characters.charAt(Math.floor(Math.random() * \r",
							" charactersLength));\r",
							"   }\r",
							"   return result;\r",
							"}\r",
							"\r",
							"pm.collectionVariables.set(\"boardName\", makeName(10));"
						],
						"type": "text/javascript"
					}
				}
			],
			"request": {
				"method": "POST",
				"header": [],
				"url": {
					"raw": "https://api.trello.com/1/boards/?name={{boardName}}&key={{trelloApiKey}}&token={{trelloApiToken}}&defaultLists=false",
					"protocol": "https",
					"host": [
						"api",
						"trello",
						"com"
					],
					"path": [
						"1",
						"boards",
						""
					],
					"query": [
						{
							"key": "name",
							"value": "{{boardName}}"
						},
						{
							"key": "key",
							"value": "{{trelloApiKey}}"
						},
						{
							"key": "token",
							"value": "{{trelloApiToken}}"
						},
						{
							"key": "defaultLists",
							"value": "false"
						}
					]
				}
			},
			"response": []
		},
		{
			"name": "Update Board",
			"event": [
				{
					"listen": "prerequest",
					"script": {
						"exec": [
							"function makeName(length) {\r",
							"    var result = '';\r",
							"    var characters = 'ABCDEFGHIJKLMNOPQRSTUVWXYZabcdefghijklmnopqrstuvwxyz0123456789';\r",
							"    var charactersLength = characters.length;\r",
							"    for ( var i = 0; i < length; i++ ) {\r",
							"      result += characters.charAt(Math.floor(Math.random() * \r",
							" charactersLength));\r",
							"   }\r",
							"   return result;\r",
							"}\r",
							"\r",
							"pm.collectionVariables.set(\"newName\", makeName(10));"
						],
						"type": "text/javascript"
					}
				},
				{
					"listen": "test",
					"script": {
						"exec": [
							"pm.test(\"Status code is 200\", function () {\r",
							"    pm.response.to.have.status(200);\r",
							"});\r",
							"pm.test(\"Check if the name has been updated successfully\", function () {\r",
							"    var jsonData = pm.response.json();\r",
							"    pm.expect(jsonData.name).to.eql(pm.collectionVariables.get(\"newName\"));\r",
							"});"
						],
						"type": "text/javascript"
					}
				}
			],
			"request": {
				"method": "PUT",
				"header": [],
				"url": {
					"raw": "https://api.trello.com/1/boards/:id?key={{trelloApiKey}}&token={{trelloApiToken}}&name={{newName}}",
					"protocol": "https",
					"host": [
						"api",
						"trello",
						"com"
					],
					"path": [
						"1",
						"boards",
						":id"
					],
					"query": [
						{
							"key": "key",
							"value": "{{trelloApiKey}}"
						},
						{
							"key": "token",
							"value": "{{trelloApiToken}}"
						},
						{
							"key": "name",
							"value": "{{newName}}"
						}
					],
					"variable": [
						{
							"key": "id",
							"value": "{{idBoard}}"
						}
					]
				}
			},
			"response": []
		},
		{
			"name": "Get Board",
			"event": [
				{
					"listen": "test",
					"script": {
						"exec": [
							"pm.test(\"Ensure the board exists\", function () {\r",
							"    pm.response.to.have.status(200);\r",
							"});"
						],
						"type": "text/javascript"
					}
				}
			],
			"request": {
				"method": "GET",
				"header": [],
				"url": {
					"raw": "https://api.trello.com/1/boards/:id?key={{trelloApiKey}}&token={{trelloApiToken}}",
					"protocol": "https",
					"host": [
						"api",
						"trello",
						"com"
					],
					"path": [
						"1",
						"boards",
						":id"
					],
					"query": [
						{
							"key": "key",
							"value": "{{trelloApiKey}}"
						},
						{
							"key": "token",
							"value": "{{trelloApiToken}}"
						}
					],
					"variable": [
						{
							"key": "id",
							"value": "{{idBoard}}"
						}
					]
				}
			},
			"response": []
		},
		{
			"name": "Create List",
			"event": [
				{
					"listen": "test",
					"script": {
						"exec": [
							"const response = pm.response.json();\r",
							"pm.collectionVariables.set('idList', response.id);\r",
							"\r",
							"pm.test(\"Status code is 200\", function () {\r",
							"    pm.response.to.have.status(200);\r",
							"});\r",
							"\r",
							"var jsonData = pm.response.json();\r",
							"\r",
							"pm.test(\"Create List with correct values\", function () {\r",
							"    pm.expect(jsonData.name).to.eql('TODO');\r",
							"    pm.expect(jsonData.closed).to.eql(false);\r",
							"});\r",
							"\r",
							"pm.test(\"Create list in correct board\", function () {\r",
							"    pm.expect(jsonData.idBoard).to.eql(pm.variables.get(\"idBoard\"));\r",
							"});"
						],
						"type": "text/javascript"
					}
				}
			],
			"request": {
				"method": "POST",
				"header": [],
				"url": {
					"raw": "https://api.trello.com/1/lists?key={{trelloApiKey}}&token={{trelloApiToken}}&name=TODO&idBoard={{idBoard}}",
					"protocol": "https",
					"host": [
						"api",
						"trello",
						"com"
					],
					"path": [
						"1",
						"lists"
					],
					"query": [
						{
							"key": "key",
							"value": "{{trelloApiKey}}"
						},
						{
							"key": "token",
							"value": "{{trelloApiToken}}"
						},
						{
							"key": "name",
							"value": "TODO"
						},
						{
							"key": "idBoard",
							"value": "{{idBoard}}"
						}
					]
				}
			},
			"response": []
		},
		{
			"name": "Create Done List",
			"event": [
				{
					"listen": "test",
					"script": {
						"exec": [
							"const response = pm.response.json();\r",
							"pm.collectionVariables.set('idDone', response.id);\r",
							"\r",
							"pm.test(\"Status code is 200\", function () {\r",
							"    pm.response.to.have.status(200);\r",
							"});\r",
							"\r",
							"var jsonData = pm.response.json();\r",
							"\r",
							"pm.test(\"Create List with correct values\", function () {\r",
							"    pm.expect(jsonData.name).to.eql('Done');\r",
							"    pm.expect(jsonData.closed).to.eql(false);\r",
							"});\r",
							"\r",
							"pm.test(\"Create list in correct board\", function () {\r",
							"    pm.expect(jsonData.idBoard).to.eql(pm.variables.get(\"idBoard\"));\r",
							"});"
						],
						"type": "text/javascript"
					}
				}
			],
			"request": {
				"method": "POST",
				"header": [],
				"url": {
					"raw": "https://api.trello.com/1/lists?key={{trelloApiKey}}&token={{trelloApiToken}}&name=Done&idBoard={{idBoard}}",
					"protocol": "https",
					"host": [
						"api",
						"trello",
						"com"
					],
					"path": [
						"1",
						"lists"
					],
					"query": [
						{
							"key": "key",
							"value": "{{trelloApiKey}}"
						},
						{
							"key": "token",
							"value": "{{trelloApiToken}}"
						},
						{
							"key": "name",
							"value": "Done"
						},
						{
							"key": "idBoard",
							"value": "{{idBoard}}"
						}
					]
				}
			},
			"response": []
		},
		{
			"name": "Create a New Card",
			"event": [
				{
					"listen": "test",
					"script": {
						"exec": [
							"const response = pm.response.json();\r",
							"pm.collectionVariables.set('idCard', response.id);\r",
							"\r",
							"pm.test(\"Status code is 200\", function () {\r",
							"    pm.response.to.have.status(200);\r",
							"});\r",
							"\r",
							"var jsonData = pm.response.json();\r",
							"\r",
							"pm.test(\"Create a card with correct values\", function () {\r",
							"    pm.expect(jsonData.name).to.eql(\"Learn Postman\");\r",
							"    pm.expect(jsonData.closed).to.eql(false);\r",
							"    });\r",
							"\r",
							"pm.test(\"Create a card with no votes and attachments\", function () {\r",
							"    pm.expect(jsonData.badges.attachments).to.eql(0);\r",
							"    pm.expect(jsonData.badges.votes).to.eql(0);\r",
							"    });\r",
							"\r",
							"pm.test(\"Create a card on the correct list\", function () {\r",
							"    pm.expect(jsonData.idList).to.eql(pm.variables.get(\"idList\"));\r",
							"});\r",
							"\r",
							"pm.test(\"Create a card on the correct board\", function () {\r",
							"    pm.expect(jsonData.idBoard).to.eql(pm.variables.get(\"idBoard\"));\r",
							"});"
						],
						"type": "text/javascript"
					}
				}
			],
			"request": {
				"method": "POST",
				"header": [],
				"url": {
					"raw": "https://api.trello.com/1/cards?idList={{idList}}&token={{trelloApiToken}}&key={{trelloApiKey}}&name=Learn Postman",
					"protocol": "https",
					"host": [
						"api",
						"trello",
						"com"
					],
					"path": [
						"1",
						"cards"
					],
					"query": [
						{
							"key": "idList",
							"value": "{{idList}}"
						},
						{
							"key": "token",
							"value": "{{trelloApiToken}}"
						},
						{
							"key": "key",
							"value": "{{trelloApiKey}}"
						},
						{
							"key": "name",
							"value": "Learn Postman"
						}
					]
				}
			},
			"response": []
		},
		{
			"name": "Update Card Status",
			"event": [
				{
					"listen": "test",
					"script": {
						"exec": [
							"pm.test(\"Status code is 200\", function () {\r",
							"    pm.response.to.have.status(200);\r",
							"});\r",
							"\r",
							"var jsonData = pm.response.json();\r",
							"\r",
							"pm.test(\"Ensure card name doesn't change\", function () {\r",
							"    pm.expect(jsonData.name).to.eql(\"Learn Postman\");\r",
							"});\r",
							"\r",
							"pm.test(\"Should move card to correct list\", function () {\r",
							"    pm.expect(jsonData.idList).to.eql(pm.variables.get(\"idDone\"));\r",
							"});"
						],
						"type": "text/javascript"
					}
				}
			],
			"request": {
				"method": "PUT",
				"header": [],
				"url": {
					"raw": "https://api.trello.com/1/cards/:id?key={{trelloApiKey}}&token={{trelloApiToken}}&idList={{idDone}}",
					"protocol": "https",
					"host": [
						"api",
						"trello",
						"com"
					],
					"path": [
						"1",
						"cards",
						":id"
					],
					"query": [
						{
							"key": "key",
							"value": "{{trelloApiKey}}"
						},
						{
							"key": "token",
							"value": "{{trelloApiToken}}"
						},
						{
							"key": "name",
							"value": "Learn Postman",
							"disabled": true
						},
						{
							"key": "idList",
							"value": "{{idDone}}"
						}
					],
					"variable": [
						{
							"key": "id",
							"value": "{{idCard}}"
						}
					]
				}
			},
			"response": []
		},
		{
			"name": "Get Complete Trello Lists Info",
			"event": [
				{
					"listen": "test",
					"script": {
						"exec": [
							"pm.test(\"Check board lists\", function () {\r",
							"    pm.response.to.have.status(200);\r",
							"});"
						],
						"type": "text/javascript"
					}
				}
			],
			"protocolProfileBehavior": {
				"disabledSystemHeaders": {
					"accept": true
				}
			},
			"request": {
				"method": "GET",
				"header": [
					{
						"key": "Accept",
						"value": "application/json",
						"type": "text"
					}
				],
				"url": {
					"raw": "https://api.trello.com/1/boards/:id/lists?token={{trelloApiToken}}&key={{trelloApiKey}}",
					"protocol": "https",
					"host": [
						"api",
						"trello",
						"com"
					],
					"path": [
						"1",
						"boards",
						":id",
						"lists"
					],
					"query": [
						{
							"key": "token",
							"value": "{{trelloApiToken}}"
						},
						{
							"key": "key",
							"value": "{{trelloApiKey}}"
						}
					],
					"variable": [
						{
							"key": "id",
							"value": "{{idBoard}}"
						}
					]
				}
			},
			"response": []
		},
		{
			"name": "Get Complete Trello Cards Info",
			"event": [
				{
					"listen": "test",
					"script": {
						"exec": [
							"pm.test(\"Check List cards\", function () {\r",
							"    pm.response.to.have.status(200);\r",
							"});"
						],
						"type": "text/javascript"
					}
				}
			],
			"request": {
				"method": "GET",
				"header": [],
				"url": {
					"raw": "https://api.trello.com/1/boards/:idBoard/cards?key={{trelloApiKey}}&token={{trelloApiToken}}",
					"protocol": "https",
					"host": [
						"api",
						"trello",
						"com"
					],
					"path": [
						"1",
						"boards",
						":idBoard",
						"cards"
					],
					"query": [
						{
							"key": "key",
							"value": "{{trelloApiKey}}"
						},
						{
							"key": "token",
							"value": "{{trelloApiToken}}"
						}
					],
					"variable": [
						{
							"key": "idBoard",
							"value": "{{idBoard}}"
						}
					]
				}
			},
			"response": []
		},
		{
			"name": "Delete Board",
			"event": [
				{
					"listen": "test",
					"script": {
						"exec": [
							"pm.test(\"Status code is 200\", function () {\r",
							"    pm.response.to.have.status(200);\r",
							"});\r",
							""
						],
						"type": "text/javascript"
					}
				}
			],
			"request": {
				"method": "DELETE",
				"header": [],
				"url": {
					"raw": "https://api.trello.com/1/boards/:idBoard/?token={{trelloApiToken}}&key={{trelloApiKey}}",
					"protocol": "https",
					"host": [
						"api",
						"trello",
						"com"
					],
					"path": [
						"1",
						"boards",
						":idBoard",
						""
					],
					"query": [
						{
							"key": "token",
							"value": "{{trelloApiToken}}"
						},
						{
							"key": "key",
							"value": "{{trelloApiKey}}"
						}
					],
					"variable": [
						{
							"key": "idBoard",
							"value": "{{idBoard}}"
						}
					]
				}
			},
			"response": []
		},
		{
			"name": "Checks Deleted Board",
			"event": [
				{
					"listen": "test",
					"script": {
						"exec": [
							"let jsonData = pm.response.json();\r",
							"if(jsonData.length !== 0){\r",
							"    pm.collectionVariables.set('idBoard', jsonData[0].id);\r",
							"        postman.setNextRequest(\"Delete Board\");\r",
							"\r",
							"pm.test(\"Existent Board is deleted\", function () {\r",
							"    pm.response.to.have.status(200);\r",
							"});\r",
							"\r",
							"} else{\r",
							"        postman.setNextRequest(null);\r",
							"        pm.test(\"No boards are detected\", function () {\r",
							"    pm.response.to.have.status(200);\r",
							"});\r",
							"\r",
							"}"
						],
						"type": "text/javascript"
					}
				}
			],
			"request": {
				"method": "GET",
				"header": [],
				"url": {
					"raw": "https://api.trello.com/1/members/:id/boards?key={{trelloApiKey}}&token={{trelloApiToken}}",
					"protocol": "https",
					"host": [
						"api",
						"trello",
						"com"
					],
					"path": [
						"1",
						"members",
						":id",
						"boards"
					],
					"query": [
						{
							"key": "key",
							"value": "{{trelloApiKey}}"
						},
						{
							"key": "token",
							"value": "{{trelloApiToken}}"
						}
					],
					"variable": [
						{
							"key": "id",
							"value": "fernandosousa128"
						}
					]
				}
			},
			"response": []
		}
	],
	"event": [
		{
			"listen": "prerequest",
			"script": {
				"type": "text/javascript",
				"exec": [
					""
				]
			}
		},
		{
			"listen": "test",
			"script": {
				"type": "text/javascript",
				"exec": [
					""
				]
			}
		}
	],
	"variable": [
		{
			"key": "boardName",
			"value": ""
		},
		{
			"key": "idBoard",
			"value": ""
		},
		{
			"key": "newName",
			"value": ""
		},
		{
			"key": "idList",
			"value": ""
		},
		{
			"key": "idDone",
			"value": ""
		},
		{
			"key": "idCard",
			"value": ""
		}
	]
}